…
``` r
GetNetwork(olig2_36hpf)
```

    ## A Network object
    ## with 526 TFs and 549 target genes

``` r
coef(olig2_36hpf)
```

    ## # A tibble: 9,356 × 10
    ##    tf     target region term  estimate std_err statistic     pval     padj  corr
    ##    <chr>  <chr>  <chr>  <chr>    <dbl>   <dbl>     <dbl>    <dbl>    <dbl> <dbl>
    ##  1 zic5   sp9    chr9-… chr9…  0.393   0.0433      9.09  1.38e-19 2.56e-18 0.124
    ##  2 arxa   sp9    chr9-… chr9…  0.335   0.0274     12.2   9.28e-34 2.43e-32 0.256
    ##  3 sall1a rapge… chr9-… chr9…  0.00266 0.00512     0.520 6.03e- 1 8.11e- 1 0.104
    ##  4 mef2cb rapge… chr9-… chr9…  0.00985 0.0133      0.742 4.58e- 1 7.01e- 1 0.111
    ##  5 zfpm2a rapge… chr9-… chr9…  0.0783  0.0143      5.48  4.38e- 8 4.82e- 7 0.181
    ##  6 esr2b  rapge… chr9-… chr9…  0.0138  0.0332      0.417 6.77e- 1 8.58e- 1 0.243
    ##  7 zfpm1  rapge… chr9-… chr9…  0.00521 0.0104      0.500 6.17e- 1 8.21e- 1 0.249
    ##  8 fosb   rapge… chr9-… chr9…  0.106   0.0296      3.58  3.49e- 4 2.23e- 3 0.103
    ##  9 foxj1b rapge… chr9-… chr9…  0.0635  0.0238      2.66  7.77e- 3 3.41e- 2 0.125
    ## 10 zfpm2b rapge… chr9-… chr9… -0.0123  0.0141     -0.873 3.83e- 1 6.28e- 1 0.201
    ## # ℹ 9,346 more rows
…
    ## Found 243 TF modules

``` r
modules <- NetworkModules(olig2_36hpf) 
modules@meta
```

    ## # A tibble: 605 × 9
    ##    tf     target  estimate n_regions n_genes n_tfs regions         pval     padj
    ##    <chr>  <chr>      <dbl>     <int>   <int> <int> <chr>          <dbl>    <dbl>
    ##  1 alx1   egf       0.506          3       1    16 chr14-3637… 2.47e- 7 2.53e- 6
    ##  2 alx4a  pdgfra    0.384          3       1     4 chr20-2247… 1.45e-62 5.80e-61
    ##  3 arid5b dld      -0.111         10       4    20 chr13-6083… 1.59e- 5 1.27e- 4
    ##  4 arid5b foxn4     0.0162         2       4     9 chr5-19395… 4.21e- 4 2.63e- 3
    ##  5 arid5b olig2    -0.0557        11       4    14 chr9-32786… 1.60e- 3 8.72e- 3
    ##  6 arid5b qkib      0.0662         5       4    16 chr13-3578… 4.58e- 3 2.17e- 2
    ##  7 arnt2  elavl3    0.0619         2       1    12 chr3-46818… 3.25e- 4 2.09e- 3
    ##  8 arxa   etv1      0.158          1       2     3 chr15-3412… 3.61e-40 1.05e-38
    ##  9 arxa   nkx2.4a   0.441          4       2     8 chr17-4203… 2.62e-53 9.11e-52
    ## 10 arxb   dlx1a     0.295          4       3     9 chr9-32879… 8.37e-11 1.15e- 9
    ## # ℹ 595 more rows
…
